/home/user/ntua_os_lab/guest_files/virtio-cryptodev/guest/virtio_crypto.ko
/home/user/ntua_os_lab/guest_files/virtio-cryptodev/guest/crypto-module.o /home/user/ntua_os_lab/guest_files/virtio-cryptodev/guest/crypto-chrdev.o

